color sensor/color.vcd
$date
	Sun Sep 08 21:04:38 2024
$end
$version
	Icarus Verilog
$end
$timescale
	1ps
$end
$scope module tb_color_sensor $end
$scope module uut $end
$var wire 1 ! clk $end
$var wire 1 " rst $end
$var wire 1 # sensor_out $end
$var parameter 2 $ S_BLUE $end
$var parameter 2 % S_CLEAR $end
$var parameter 2 & S_GREEN $end
$var parameter 2 ' S_RED $end
$var parameter 32 ( TIME_LIMIT $end
$var reg 16 ) blue_count [15:0] $end
$var reg 16 * blue_norm [15:0] $end
$var reg 16 + clear_count [15:0] $end
$var reg 16 , green_count [15:0] $end
$var reg 16 - green_norm [15:0] $end
$var reg 16 . red_count [15:0] $end
$var reg 16 / red_norm [15:0] $end
$var reg 2 0 s2_s3 [1:0] $end
$var reg 2 1 state [1:0] $end
$var reg 32 2 time_counter [31:0] $end
$upscope $end
$upscope $end
$enddefinitions $end
$comment Show the parameter values. $end
$dumpall
b10111110101111000010000000 (
b0 '
b1 &
b11 %
b10 $
$end
#0
$dumpvars
b0 2
b0 1
b0 0
b0 /
b0 .
b0 -
b0 ,
b0 +
b0 *
b0 )
0#
1"
0!
$end
#10000
1!
#20000
0!
0"
#30000
b1 2
1!
#40000
0!
#50000
b10 2
1!
#60000
0!
1#
#70000
b11 2
b1 .
1!
#80000
0!
0#
#90000
b100 2
1!
#100000
0!
1#
#110000
b101 2
b10 .
1!
#120000
0!
0#
#130000
b110 2
1!
#140000
0!
1#
#150000
b111 2
b11 .
1!
#160000
0!
0#
#170000
b1000 2
1!
#180000
0!
1#
#190000
b1001 2
b100 .
1!
#200000
0!
0#
#210000
b1010 2
1!
#220000
0!
1#
#230000
b1011 2
b101 .
1!
#240000
0!
0#
#250000
b1100 2
1!
#260000
0!
1#
#270000
b1101 2
b110 .
1!
#280000
0!
0#
#290000
b1110 2
1!
#300000
0!
1#
#310000
b1111 2
b111 .
1!
#320000
0!
0#
#330000
b10000 2
1!
#340000
0!
1#
#350000
b10001 2
b1000 .
1!
#360000
0!
0#
#370000
b10010 2
1!
#380000
0!
1#
#390000
b10011 2
b1001 .
1!
#400000
0!
0#
#410000
b10100 2
1!
#420000
0!
1#
#430000
b10101 2
b1010 .
1!
#440000
0!
0#
#450000
b10110 2
1!
#460000
0!
1#
#470000
b10111 2
b1011 .
1!
#480000
0!
0#
#490000
b11000 2
1!
#500000
0!
1#
#510000
b11001 2
b1100 .
1!
#520000
0!
0#
#530000
b11010 2
1!
#540000
0!
1#
#550000
b11011 2
b1101 .
1!
#560000
0!
0#
#570000
b11100 2
1!
#580000
0!
1#
#590000
b11101 2
b1110 .
1!
#600000
0!
0#
#610000
b11110 2
1!
#620000
0!
1#
#630000
b11111 2
b1111 .
1!
#640000
0!
0#
#650000
b100000 2
1!
#660000
0!
1#
#670000
b100001 2
b10000 .
1!
#680000
0!
0#
#690000
b100010 2
1!
#700000
0!
1#
#710000
b100011 2
b10001 .
1!
#720000
0!
0#
#730000
b100100 2
1!
#740000
0!
1#
#750000
b100101 2
b10010 .
1!
#760000
0!
0#
#770000
b100110 2
1!
#780000
0!
1#
#790000
b100111 2
b10011 .
1!
#800000
0!
0#
#810000
b101000 2
1!
#820000
0!
1#
#830000
b101001 2
b10100 .
1!
#840000
0!
0#
#850000
b101010 2
1!
#860000
0!
1#
#870000
b101011 2
b10101 .
1!
#880000
0!
0#
#890000
b101100 2
1!
#900000
0!
1#
#910000
b101101 2
b10110 .
1!
#920000
0!
0#
#930000
b101110 2
1!
#940000
0!
1#
#950000
b101111 2
b10111 .
1!
#960000
0!
0#
#970000
b110000 2
1!
#980000
0!
1#
#990000
b110001 2
b11000 .
1!
#1000000
0!
0#
#1010000
b110010 2
1!
#1020000
0!
1#
#1030000
b110011 2
b11001 .
1!
#1040000
0!
0#
#1050000
b110100 2
1!
#1060000
0!
1#
#1070000
b110101 2
b11010 .
1!
#1080000
0!
0#
#1090000
b110110 2
1!
#1100000
0!
1#
#1110000
b110111 2
b11011 .
1!
#1120000
0!
0#
#1130000
b111000 2
1!
#1140000
0!
1#
#1150000
b111001 2
b11100 .
1!
#1160000
0!
0#
#1170000
b111010 2
1!
#1180000
0!
1#
#1190000
b111011 2
b11101 .
1!
#1200000
0!
0#
#1210000
b111100 2
1!
#1220000
0!
1#
#1230000
b111101 2
b11110 .
1!
#1240000
0!
0#
#1250000
b111110 2
1!
#1260000
0!
1#
#1270000
b111111 2
b11111 .
1!
#1280000
0!
0#
#1290000
b1000000 2
1!
#1300000
0!
1#
#1310000
b1000001 2
b100000 .
1!
#1320000
0!
0#
#1330000
b1000010 2
1!
#1340000
0!
1#
#1350000
b1000011 2
b100001 .
1!
#1360000
0!
0#
#1370000
b1000100 2
1!
#1380000
0!
1#
#1390000
b1000101 2
b100010 .
1!
#1400000
0!
0#
#1410000
b1000110 2
1!
#1420000
0!
1#
#1430000
b1000111 2
b100011 .
1!
#1440000
0!
0#
#1450000
b1001000 2
1!
#1460000
0!
1#
#1470000
b1001001 2
b100100 .
1!
#1480000
0!
0#
#1490000
b1001010 2
1!
#1500000
0!
1#
#1510000
b1001011 2
b100101 .
1!
#1520000
0!
0#
#1530000
b1001100 2
1!
#1540000
0!
1#
#1550000
b1001101 2
b100110 .
1!
#1560000
0!
0#
#1570000
b1001110 2
1!
#1580000
0!
1#
#1590000
b1001111 2
b100111 .
1!
#1600000
0!
0#
#1610000
b1010000 2
1!
#1620000
0!
1#
#1630000
b1010001 2
b101000 .
1!
#1640000
0!
0#
#1650000
b1010010 2
1!
#1660000
0!
1#
#1670000
b1010011 2
b101001 .
1!
#1680000
0!
0#
#1690000
b1010100 2
1!
#1700000
0!
1#
#1710000
b1010101 2
b101010 .
1!
#1720000
0!
0#
#1730000
b1010110 2
1!
#1740000
0!
1#
#1750000
b1010111 2
b101011 .
1!
#1760000
0!
0#
#1770000
b1011000 2
1!
#1780000
0!
1#
#1790000
b1011001 2
b101100 .
1!
#1800000
0!
0#
#1810000
b1011010 2
1!
#1820000
0!
1#
#1830000
b1011011 2
b101101 .
1!
#1840000
0!
0#
#1850000
b1011100 2
1!
#1860000
0!
1#
#1870000
b1011101 2
b101110 .
1!
#1880000
0!
0#
#1890000
b1011110 2
1!
#1900000
0!
1#
#1910000
b1011111 2
b101111 .
1!
#1920000
0!
0#
#1930000
b1100000 2
1!
#1940000
0!
1#
#1950000
b1100001 2
b110000 .
1!
#1960000
0!
0#
#1970000
b1100010 2
1!
#1980000
0!
1#
#1990000
b1100011 2
b110001 .
1!
#2000000
0!
0#
#2010000
b1100100 2
1!
#2020000
0!
1#
#2030000
b1100101 2
b110010 .
1!
#2040000
0!
0#
#2050000
b1100110 2
1!
#2060000
0!
1#
#2070000
b1100111 2
b110011 .
1!
#2080000
0!
0#
#2090000
b1101000 2
1!
#2100000
0!
1#
#2110000
b1101001 2
b110100 .
1!
#2120000
0!
0#
#2130000
b1101010 2
1!
#2140000
0!
1#
#2150000
b1101011 2
b110101 .
1!
#2160000
0!
0#
#2170000
b1101100 2
1!
#2180000
0!
1#
#2190000
b1101101 2
b110110 .
1!
#2200000
0!
0#
#2210000
b1101110 2
1!
#2220000
0!
1#
#2230000
b1101111 2
b110111 .
1!
#2240000
0!
0#
#2250000
b1110000 2
1!
#2260000
0!
1#
#2270000
b1110001 2
b111000 .
1!
#2280000
0!
0#
#2290000
b1110010 2
1!
#2300000
0!
1#
#2310000
b1110011 2
b111001 .
1!
#2320000
0!
0#
#2330000
b1110100 2
1!
#2340000
0!
1#
#2350000
b1110101 2
b111010 .
1!
#2360000
0!
0#
#2370000
b1110110 2
1!
#2380000
0!
1#
#2390000
b1110111 2
b111011 .
1!
#2400000
0!
0#
#2410000
b1111000 2
1!
#2420000
0!
1#
#2430000
b1111001 2
b111100 .
1!
#2440000
0!
0#
#2450000
b1111010 2
1!
#2460000
0!
1#
#2470000
b1111011 2
b111101 .
1!
#2480000
0!
0#
#2490000
b1111100 2
1!
#2500000
0!
1#
#2510000
b1111101 2
b111110 .
1!
#2520000
0!
0#
#2530000
b1111110 2
1!
#2540000
0!
1#
#2550000
b1111111 2
b111111 .
1!
#2560000
0!
0#
#2570000
b10000000 2
1!
#2580000
0!
1#
#2590000
b10000001 2
b1000000 .
1!
#2600000
0!
0#
#2610000
b10000010 2
1!
#2620000
0!
1#
#2630000
b10000011 2
b1000001 .
1!
#2640000
0!
0#
#2650000
b10000100 2
1!
#2660000
0!
1#
#2670000
b10000101 2
b1000010 .
1!
#2680000
0!
0#
#2690000
b10000110 2
1!
#2700000
0!
1#
#2710000
b10000111 2
b1000011 .
1!
#2720000
0!
0#
#2730000
b10001000 2
1!
#2740000
0!
1#
#2750000
b10001001 2
b1000100 .
1!
#2760000
0!
0#
#2770000
b10001010 2
1!
#2780000
0!
1#
#2790000
b10001011 2
b1000101 .
1!
#2800000
0!
0#
