FMS/build/fsm_mascota_tb2.vcd
$date
	Mon Sep 23 10:18:58 2024
$end
$version
	Icarus Verilog
$end
$timescale
	1ps
$end
$scope module fsm_mascota_tb $end
$scope module uut $end
$var wire 1 ! A $end
$var wire 1 " B $end
$var wire 1 # C $end
$var wire 1 $ clk $end
$var wire 2 % color [1:0] $end
$var wire 1 & luz $end
$var wire 1 ' reset $end
$var wire 1 ( test $end
$var wire 2 ) time_control [1:0] $end
$var wire 6 * vida_prom [5:0] $end
$var parameter 33 + BASE_INTERVAL $end
$var parameter 32 , INIT $end
$var parameter 32 - S0 $end
$var parameter 32 . S1 $end
$var parameter 32 / S2 $end
$var parameter 32 0 S3 $end
$var parameter 32 1 S4 $end
$var parameter 32 2 S5 $end
$var parameter 32 3 S6 $end
$var reg 2 4 comida_color [1:0] $end
$var reg 3 5 current_state [2:0] $end
$var reg 34 6 decrement_interval [33:0] $end
$var reg 2 7 dzzzd [1:0] $end
$var reg 3 8 next_state [2:0] $end
$var reg 8 9 output1 [7:0] $end
$var reg 4 : output2 [3:0] $end
$var reg 32 ; timer [31:0] $end
$var reg 3 < var_S0 [2:0] $end
$var reg 3 = var_S1 [2:0] $end
$var reg 3 > var_S2 [2:0] $end
$var reg 3 ? var_S3 [2:0] $end
$var reg 3 @ var_S4 [2:0] $end
$upscope $end
$upscope $end
$enddefinitions $end
$comment Show the parameter values. $end
$dumpall
b111 3
b101 2
b100 1
b11 0
b10 /
b1 .
b0 -
b110 ,
b11111111111111111111111111111111 +
$end
#0
$dumpvars
bx @
bx ?
bx >
bx =
bx <
b0 ;
b1000 :
b11001000 9
b110 8
b0 7
b11111111111111111111111111111111 6
b110 5
b0 4
bx *
b0 )
0(
1'
z&
b0 %
0$
0#
0"
0!
$end
#5000
b1 ;
b100011 *
b111 @
b111 ?
b111 >
b111 =
b111 <
1$
#10000
0$
0'
#15000
b10 ;
1$
#20000
0$
#25000
b11 ;
1$
#30000
0$
#35000
b100 ;
1$
#40000
0$
#45000
b101 ;
1$
#50000
0$
#55000
b110 ;
1$
#60000
0$
#65000
b111 ;
1$
#70000
0$
#75000
b1000 ;
1$
#80000
0$
#85000
b1001 ;
1$
#90000
0$
#95000
b1010 ;
1$
#100000
0$
#105000
b1011 ;
1$
#110000
0$
#115000
b1100 ;
1$
#120000
0$
#125000
b1101 ;
1$
#130000
0$
#135000
b1110 ;
1$
#140000
0$
#145000
b1111 ;
1$
#150000
0$
#155000
b10000 ;
1$
#160000
0$
#165000
b10001 ;
1$
#170000
0$
#175000
b10010 ;
1$
#180000
0$
#185000
b10011 ;
1$
#190000
0$
#195000
b10100 ;
1$
#200000
0$
#205000
b10101 ;
1$
#210000
0$
#215000
b10110 ;
1$
#220000
0$
#225000
b10111 ;
1$
#230000
0$
#235000
b11000 ;
1$
#240000
0$
#245000
b11001 ;
1$
#250000
0$
#255000
b11010 ;
1$
#260000
0$
#265000
b11011 ;
1$
#270000
0$
#275000
b11100 ;
1$
#280000
0$
#285000
b11101 ;
1$
#290000
0$
#295000
b11110 ;
1$
#300000
0$
#305000
b11111 ;
1$
#310000
0$
1!
1(
#315000
b100000 ;
b0 8
1$
#320000
0$
1"
0!
#325000
b0 :
b111 9
b100001 ;
b0 5
1$
#330000
0$
0"
#335000
b100010 ;
1$
#340000
0$
1"
#345000
b0 9
b11100 *
b0 <
b100011 ;
1$
#350000
0$
0"
#355000
b100100 ;
1$
#360000
0$
1"
#365000
b1 9
b11101 *
b1 <
b100101 ;
1$
#370000
0$
0"
#375000
b100110 ;
1$
#380000
0$
1"
#385000
b10 9
b11110 *
b10 <
b100111 ;
1$
#390000
0$
0"
#395000
b101000 ;
1$
#400000
0$
1"
#405000
b11 9
b11111 *
b11 <
b101001 ;
1$
#410000
0$
0"
#415000
b101010 ;
1$
#420000
0$
1"
#425000
b100 9
b100000 *
b100 <
b101011 ;
1$
#430000
0$
0"
#435000
b101100 ;
1$
#440000
0$
1"
#445000
b101 9
b100001 *
b101 <
b101101 ;
1$
#450000
0$
0"
#455000
b101110 ;
1$
#460000
0$
1!
#465000
b101111 ;
b1 8
1$
#470000
0$
1"
0!
#475000
b1 :
b111 9
b100010 *
b110 <
b110000 ;
b1 5
b0 8
1$
#480000
0$
0"
#485000
b0 :
b110 9
b110001 ;
b0 5
b1 8
1$
#490000
0$
1"
#495000
b1 :
b111 9
b100011 *
b111 <
b110010 ;
b1 5
b0 8
1$
#500000
0$
0"
#505000
b0 :
b110011 ;
b0 5
b1 8
1$
#510000
0$
1"
#515000
b1 :
b11100 *
b0 <
b110100 ;
b1 5
b0 8
1$
#520000
0$
0"
#525000
b0 :
b0 9
b110101 ;
b0 5
b1 8
1$
#530000
0$
1"
#535000
b1 :
b111 9
b11101 *
b1 <
b110110 ;
b1 5
b0 8
1$
#540000
0$
0"
#545000
b0 :
b1 9
b110111 ;
b0 5
b1 8
1$
#550000
0$
1"
#555000
b1 :
b111 9
b11110 *
b10 <
b111000 ;
b1 5
b0 8
1$
#560000
0$
0"
#565000
b0 :
b10 9
b111001 ;
b0 5
b1 8
1$
#570000
0$
1"
#575000
b1 :
b111 9
b11111 *
b11 <
b111010 ;
b1 5
b0 8
1$
#580000
0$
0"
#585000
b0 :
b11 9
b111011 ;
b0 5
b1 8
1$
#590000
0$
1"
#595000
b1 :
b111 9
b100000 *
b100 <
b111100 ;
b1 5
b0 8
1$
#600000
0$
0"
#605000
b0 :
b100 9
b111101 ;
b0 5
b1 8
1$
#610000
0$
1!
#615000
b1 :
b111 9
b111110 ;
b1 5
1$
#620000
0$
1"
0!
#625000
b0 9
b11001 *
b0 =
b111111 ;
1$
#630000
0$
0"
#635000
b1000000 ;
1$
#640000
0$
1"
#645000
b1 9
b11010 *
b1 =
b1000001 ;
1$
#650000
0$
0"
#655000
b1000010 ;
1$
#660000
0$
1"
#665000
b10 9
b11011 *
b10 =
b1000011 ;
1$
#670000
0$
0"
#675000
b1000100 ;
1$
#680000
0$
1"
#685000
b11 9
b11100 *
b11 =
b1000101 ;
1$
#690000
0$
0"
#695000
b1000110 ;
1$
#700000
0$
1"
#705000
b100 9
b11101 *
b100 =
b1000111 ;
1$
#710000
0$
0"
#715000
b1001000 ;
1$
#720000
0$
1"
#725000
b101 9
b11110 *
b101 =
b1001001 ;
1$
#730000
0$
0"
#735000
b1001010 ;
1$
#740000
0$
1"
#745000
b110 9
b11111 *
b110 =
b1001011 ;
1$
#750000
0$
0"
#755000
b1001100 ;
1$
#760000
0$
1!
#765000
b1001101 ;
b10 8
1$
#770000
0$
1"
0!
#775000
b10 :
b111 9
b100000 *
b111 =
b1001110 ;
b10 5
b1 8
1$
#780000
0$
0"
#785000
b1 :
b1001111 ;
b1 5
b10 8
1$
#790000
0$
1"
#795000
b10 :
b11001 *
b0 =
b1010000 ;
b10 5
b1 8
1$
#800000
0$
0"
#805000
b1 :
b0 9
b1010001 ;
b1 5
b10 8
1$
#810000
0$
1"
#815000
b10 :
b111 9
b11010 *
b1 =
b1010010 ;
b10 5
b1 8
1$
#820000
0$
0"
#825000
b1 :
b1 9
b1010011 ;
b1 5
b10 8
1$
#830000
0$
1"
#835000
b10 :
b111 9
b11011 *
b10 =
b1010100 ;
b10 5
b1 8
1$
#840000
0$
0"
#845000
b1 :
b10 9
b1010101 ;
b1 5
b10 8
1$
#850000
0$
1"
#855000
b10 :
b111 9
b11100 *
b11 =
b1010110 ;
b10 5
b1 8
1$
#860000
0$
0"
#865000
b1 :
b11 9
b1010111 ;
b1 5
b10 8
1$
#870000
0$
1"
#875000
b10 :
b111 9
b11101 *
b100 =
b1011000 ;
b10 5
b1 8
1$
#880000
0$
0"
#885000
b1 :
b100 9
b1011001 ;
b1 5
b10 8
1$
#890000
0$
1"
#895000
b10 :
b111 9
b11110 *
b101 =
b1011010 ;
b10 5
b1 8
1$
#900000
0$
0"
#905000
b1 :
b101 9
b1011011 ;
b1 5
b10 8
1$
#910000
0$
1!
#915000
b10 :
b111 9
b1011100 ;
b10 5
1$
#920000
0$
1"
0!
#925000
b0 9
b10111 *
b0 >
b1011101 ;
bx1x 8
1$
#930000
0$
0"
#935000
b1011110 ;
bx1x 5
b10 8
1$
#940000
0$
1"
#945000
b1011111 ;
b10 5
1$
#950000
0$
0"
#955000
b1100000 ;
1$
#960000
0$
1"
#965000
b1 9
b11000 *
b1 >
b1100001 ;
bx1x 8
1$
#970000
0$
0"
#975000
b1100010 ;
bx1x 5
b10 8
1$
#980000
0$
1"
#985000
b1100011 ;
b10 5
1$
#990000
0$
0"
#995000
b1100100 ;
1$
#1000000
0$
1"
#1005000
b10 9
b11001 *
b10 >
b1100101 ;
bx1x 8
1$
#1010000
0$
0"
#1015000
b1100110 ;
bx1x 5
b10 8
1$
#1020000
0$
1"
#1025000
b1100111 ;
b10 5
1$
#1030000
0$
0"
#1035000
b1101000 ;
1$
#1040000
0$
1"
#1045000
b11 9
b11010 *
b11 >
b1101001 ;
bx1x 8
1$
#1050000
0$
0"
#1055000
b1101010 ;
bx1x 5
b10 8
1$
#1060000
0$
#1065000
b1101011 ;
b10 5
1$
#1070000
0$
#1075000
b1101100 ;
1$
#1080000
0$
#1085000
b1101101 ;
1$
#1090000
0$
#1095000
b1101110 ;
1$
#1100000
0$
#1105000
b1101111 ;
1$
#1110000
0$
#1115000
b1110000 ;
1$
#1120000
0$
#1125000
b1110001 ;
1$
#1130000
0$
#1135000
b1110010 ;
1$
#1140000
0$
#1145000
b1110011 ;
1$
#1150000
0$
#1155000
b1110100 ;
1$
#1160000
0$
#1165000
b1110101 ;
1$
#1170000
0$
#1175000
b1110110 ;
1$
#1180000
0$
#1185000
b1110111 ;
1$
#1190000
0$
#1195000
b1111000 ;
1$
#1200000
0$
#1205000
b1111001 ;
1$
#1210000
b1000 :
b11001000 9
b110 5
0$
1'
#1215000
b1111010 ;
b111 >
b111 =
b100011 *
b111 <
b110 8
1$
#1220000
0$
0'
#1225000
b1111011 ;
1$
#1230000
0$
#1235000
b1111100 ;
1$
#1240000
0$
#1245000
b1111101 ;
1$
#1250000
0$
#1255000
b1111110 ;
1$
#1260000
0$
#1265000
b1111111 ;
1$
#1270000
0$
#1275000
b10000000 ;
1$
#1280000
0$
#1285000
b10000001 ;
1$
#1290000
0$
#1295000
b10000010 ;
1$
#1300000
0$
#1305000
b10000011 ;
1$
#1310000
0$
#1315000
b10000100 ;
1$
#1320000
0$
#1325000
b10000101 ;
1$
#1330000
0$
#1335000
b10000110 ;
1$
#1340000
0$
#1345000
b10000111 ;
1$
#1350000
0$
#1355000
b10001000 ;
1$
#1360000
0$
#1365000
b10001001 ;
1$
#1370000
0$
#1375000
b10001010 ;
1$
#1380000
0$
#1385000
b10001011 ;
1$
#1390000
0$
#1395000
b10001100 ;
1$
#1400000
0$
#1405000
b10001101 ;
1$
#1410000
0$
#1415000
b10001110 ;
1$
#1420000
0$
#1425000
b10001111 ;
1$
#1430000
0$
#1435000
b10010000 ;
1$
#1440000
0$
#1445000
b10010001 ;
1$
#1450000
0$
#1455000
b10010010 ;
1$
#1460000
0$
#1465000
b10010011 ;
1$
#1470000
0$
#1475000
b10010100 ;
1$
#1480000
0$
#1485000
b10010101 ;
1$
#1490000
0$
#1495000
b10010110 ;
1$
#1500000
0$
#1505000
b10010111 ;
1$
#1510000
0$
#1515000
b10011000 ;
1$
#1520000
0$
1!
0(
#1525000
b10011001 ;
b0 8
1$
#1530000
0$
1"
0!
#1535000
b0 :
b111 9
b10011010 ;
b0 5
1$
#1540000
0$
0"
#1545000
b10011011 ;
1$
#1550000
0$
1"
#1555000
b10011100 ;
1$
#1560000
0$
0"
#1565000
b10011101 ;
1$
#1570000
0$
1"
#1575000
b10011110 ;
1$
#1580000
0$
0"
#1585000
b10011111 ;
1$
#1590000
0$
1"
#1595000
b10100000 ;
1$
#1600000
0$
0"
#1605000
b10100001 ;
1$
#1610000
0$
1"
#1615000
b10100010 ;
1$
#1620000
0$
0"
#1625000
b10100011 ;
1$
#1630000
0$
1"
#1635000
b10100100 ;
1$
#1640000
0$
0"
#1645000
b10100101 ;
1$
#1650000
0$
1"
#1655000
b10100110 ;
1$
#1660000
0$
0"
#1665000
b10100111 ;
1$
#1670000
0$
1!
#1675000
b10101000 ;
b1 8
1$
#1680000
0$
1"
0!
#1685000
b1 :
b10101001 ;
b1 5
b0 8
1$
#1690000
0$
0"
#1695000
b0 :
b10101010 ;
b0 5
b1 8
1$
#1700000
0$
1"
#1705000
b1 :
b10101011 ;
b1 5
b0 8
1$
#1710000
0$
0"
#1715000
b0 :
b10101100 ;
b0 5
b1 8
1$
#1720000
0$
1"
#1725000
b1 :
b10101101 ;
b1 5
b0 8
1$
#1730000
0$
0"
#1735000
b0 :
b10101110 ;
b0 5
b1 8
1$
#1740000
0$
1"
#1745000
b1 :
b10101111 ;
b1 5
b0 8
1$
#1750000
0$
0"
#1755000
b0 :
b10110000 ;
b0 5
b1 8
1$
#1760000
0$
1"
#1765000
b1 :
b10110001 ;
b1 5
b0 8
1$
#1770000
0$
0"
#1775000
b0 :
b10110010 ;
b0 5
b1 8
1$
#1780000
0$
1"
#1785000
b1 :
b10110011 ;
b1 5
b0 8
1$
#1790000
0$
0"
#1795000
b0 :
b10110100 ;
b0 5
b1 8
1$
#1800000
0$
1"
#1805000
b1 :
b10110101 ;
b1 5
b0 8
1$
#1810000
0$
0"
#1815000
b0 :
b10110110 ;
b0 5
b1 8
1$
#1820000
0$
1!
#1825000
b1 :
b10110111 ;
b1 5
1$
#1830000
0$
1"
0!
#1835000
b10111000 ;
1$
#1840000
0$
0"
#1845000
b10111001 ;
1$
#1850000
0$
1"
#1855000
b10111010 ;
1$
#1860000
0$
0"
#1865000
b10111011 ;
1$
#1870000
0$
1"
#1875000
b10111100 ;
1$
#1880000
0$
0"
#1885000
b10111101 ;
1$
#1890000
0$
1"
#1895000
b10111110 ;
1$
#1900000
0$
0"
#1905000
b10111111 ;
1$
#1910000
0$
1"
#1915000
b11000000 ;
1$
#1920000
0$
0"
#1925000
b11000001 ;
1$
#1930000
0$
1"
#1935000
b11000010 ;
1$
#1940000
0$
0"
#1945000
b11000011 ;
1$
#1950000
0$
1"
#1955000
b11000100 ;
1$
#1960000
0$
0"
#1965000
b11000101 ;
1$
#1970000
0$
1!
#1975000
b11000110 ;
b10 8
1$
#1980000
0$
1"
0!
#1985000
b10 :
b11000111 ;
b10 5
b1 8
1$
#1990000
0$
0"
#1995000
b1 :
b11001000 ;
b1 5
b10 8
1$
#2000000
0$
1"
#2005000
b10 :
b11001001 ;
b10 5
b1 8
1$
#2010000
0$
0"
#2015000
b1 :
b11001010 ;
b1 5
b10 8
1$
#2020000
0$
1"
#2025000
b10 :
b11001011 ;
b10 5
b1 8
1$
#2030000
0$
0"
#2035000
b1 :
b11001100 ;
b1 5
b10 8
1$
#2040000
0$
1"
#2045000
b10 :
b11001101 ;
b10 5
b1 8
1$
#2050000
0$
0"
#2055000
b1 :
b11001110 ;
b1 5
b10 8
1$
#2060000
0$
1"
#2065000
b10 :
b11001111 ;
b10 5
b1 8
1$
#2070000
0$
0"
#2075000
b1 :
b11010000 ;
b1 5
b10 8
1$
#2080000
0$
1"
#2085000
b10 :
b11010001 ;
b10 5
b1 8
1$
#2090000
0$
0"
#2095000
b1 :
b11010010 ;
b1 5
b10 8
1$
#2100000
0$
1"
#2105000
b10 :
b11010011 ;
b10 5
b1 8
1$
#2110000
0$
0"
#2115000
b1 :
b11010100 ;
b1 5
b10 8
1$
#2120000
0$
1!
#2125000
b10 :
b11010101 ;
b10 5
1$
#2130000
0$
1"
0!
#2135000
b11010110 ;
bx1x 8
1$
#2140000
0$
0"
#2145000
b11010111 ;
bx1x 5
b10 8
1$
#2150000
0$
1"
#2155000
b11011000 ;
b10 5
1$
#2160000
0$
0"
#2165000
b11011001 ;
1$
#2170000
0$
1"
#2175000
b11011010 ;
bx1x 8
1$
#2180000
0$
0"
#2185000
b11011011 ;
bx1x 5
b10 8
1$
#2190000
0$
1"
#2195000
b11011100 ;
b10 5
1$
#2200000
0$
0"
#2205000
b11011101 ;
1$
#2210000
0$
1"
#2215000
b11011110 ;
bx1x 8
1$
#2220000
0$
0"
#2225000
b11011111 ;
bx1x 5
b10 8
1$
#2230000
0$
1"
#2235000
b11100000 ;
b10 5
1$
#2240000
0$
0"
#2245000
b11100001 ;
1$
#2250000
0$
1"
#2255000
b11100010 ;
bx1x 8
1$
#2260000
0$
0"
#2265000
b11100011 ;
bx1x 5
b10 8
1$
#2270000
0$
#2275000
b11100100 ;
b10 5
1$
#2280000
0$
#2285000
b11100101 ;
1$
#2290000
0$
#2295000
b11100110 ;
1$
#2300000
0$
#2305000
b11100111 ;
1$
#2310000
0$
#2315000
b11101000 ;
1$
#2320000
0$
#2325000
b11101001 ;
1$
#2330000
0$
#2335000
b11101010 ;
1$
#2340000
0$
#2345000
b11101011 ;
1$
#2350000
0$
#2355000
b11101100 ;
1$
#2360000
0$
#2365000
b11101101 ;
1$
#2370000
0$
#2375000
b11101110 ;
1$
#2380000
0$
#2385000
b11101111 ;
1$
#2390000
0$
#2395000
b11110000 ;
1$
#2400000
0$
#2405000
b11110001 ;
1$
#2410000
0$
#2415000
b11110010 ;
1$
#2420000
0$
#2425000
b11110011 ;
1$
#2430000
0$
#2435000
b11110100 ;
1$
#2440000
0$
#2445000
b11110101 ;
1$
#2450000
0$
#2455000
b11110110 ;
1$
#2460000
0$
#2465000
b11110111 ;
1$
#2470000
0$
#2475000
b11111000 ;
1$
#2480000
0$
#2485000
b11111001 ;
1$
#2490000
0$
#2495000
b11111010 ;
1$
#2500000
0$
#2505000
b11111011 ;
1$
#2510000
0$
#2515000
b11111100 ;
1$
#2520000
0$
#2525000
b11111101 ;
1$
#2530000
0$
#2535000
b11111110 ;
1$
#2540000
0$
#2545000
b11111111 ;
1$
#2550000
0$
#2555000
b100000000 ;
1$
#2560000
0$
#2565000
b100000001 ;
1$
#2570000
0$
#2575000
b100000010 ;
1$
#2580000
0$
#2585000
b100000011 ;
1$
#2590000
0$
#2595000
b100000100 ;
1$
#2600000
0$
#2605000
b100000101 ;
1$
#2610000
0$
#2615000
b100000110 ;
1$
#2620000
0$
#2625000
b100000111 ;
1$
#2630000
0$
#2635000
b100001000 ;
1$
#2640000
0$
#2645000
b100001001 ;
1$
#2650000
0$
#2655000
b100001010 ;
1$
#2660000
0$
#2665000
b100001011 ;
1$
#2670000
0$
#2675000
b100001100 ;
1$
#2680000
0$
#2685000
b100001101 ;
1$
#2690000
0$
#2695000
b100001110 ;
1$
#2700000
0$
#2705000
b100001111 ;
1$
#2710000
0$
#2715000
b100010000 ;
1$
#2720000
0$
#2725000
b100010001 ;
1$
#2730000
0$
#2735000
b100010010 ;
1$
#2740000
0$
#2745000
b100010011 ;
1$
#2750000
0$
#2755000
b100010100 ;
1$
#2760000
0$
#2765000
b100010101 ;
1$
#2770000
0$
#2775000
b100010110 ;
1$
#2780000
0$
#2785000
b100010111 ;
1$
#2790000
0$
#2795000
b100011000 ;
1$
#2800000
0$
#2805000
b100011001 ;
1$
#2810000
0$
#2815000
b100011010 ;
1$
#2820000
0$
#2825000
b100011011 ;
1$
#2830000
0$
#2835000
b100011100 ;
1$
#2840000
0$
#2845000
b100011101 ;
1$
#2850000
0$
#2855000
b100011110 ;
1$
#2860000
0$
#2865000
b100011111 ;
1$
#2870000
0$
#2875000
b100100000 ;
1$
#2880000
0$
#2885000
b100100001 ;
1$
#2890000
0$
#2895000
b100100010 ;
1$
#2900000
0$
#2905000
b100100011 ;
1$
#2910000
0$
#2915000
b100100100 ;
1$
#2920000
0$
#2925000
b100100101 ;
1$
#2930000
0$
#2935000
b100100110 ;
1$
#2940000
0$
#2945000
b100100111 ;
1$
#2950000
0$
#2955000
b100101000 ;
1$
#2960000
0$
#2965000
b100101001 ;
1$
#2970000
0$
#2975000
b100101010 ;
1$
#2980000
0$
#2985000
b100101011 ;
1$
#2990000
0$
#2995000
b100101100 ;
1$
#3000000
0$
#3005000
b100101101 ;
1$
#3010000
0$
#3015000
b100101110 ;
1$
#3020000
0$
#3025000
b100101111 ;
1$
#3030000
0$
#3035000
b100110000 ;
1$
#3040000
0$
#3045000
b100110001 ;
1$
#3050000
0$
#3055000
b100110010 ;
1$
#3060000
0$
#3065000
b100110011 ;
1$
#3070000
0$
#3075000
b100110100 ;
1$
#3080000
0$
#3085000
b100110101 ;
1$
#3090000
0$
#3095000
b100110110 ;
1$
#3100000
0$
#3105000
b100110111 ;
1$
#3110000
0$
#3115000
b100111000 ;
1$
#3120000
0$
#3125000
b100111001 ;
1$
#3130000
0$
#3135000
b100111010 ;
1$
#3140000
0$
#3145000
b100111011 ;
1$
#3150000
0$
#3155000
b100111100 ;
1$
#3160000
0$
#3165000
b100111101 ;
1$
#3170000
0$
#3175000
b100111110 ;
1$
#3180000
0$
#3185000
b100111111 ;
1$
#3190000
0$
#3195000
b101000000 ;
1$
#3200000
0$
#3205000
b101000001 ;
1$
#3210000
0$
#3215000
b101000010 ;
1$
#3220000
0$
#3225000
b101000011 ;
1$
#3230000
0$
#3235000
b101000100 ;
1$
#3240000
0$
#3245000
b101000101 ;
1$
#3250000
0$
#3255000
b101000110 ;
1$
#3260000
0$
#3265000
b101000111 ;
1$
