FMS/build/TB_comp.vcd
$date
	Sat Sep 21 23:39:24 2024
$end
$version
	Icarus Verilog
$end
$timescale
	1ps
$end
$scope module tb_top_module $end
$scope module uut $end
$var wire 1 ! A $end
$var wire 1 " B $end
$var wire 1 # C $end
$var wire 1 $ clk $end
$var wire 3 % led_s0_s1 [2:0] $end
$var wire 1 & rst $end
$var wire 1 ' sensor_out $end
$var wire 1 ( test $end
$var wire 7 ) sseg [6:0] $end
$var wire 2 * s2_s3 [1:0] $end
$var wire 1 + luz $end
$var wire 1 , led $end
$var wire 1 - lcd_rw $end
$var wire 1 . lcd_rs $end
$var wire 1 / lcd_enable $end
$var wire 8 0 lcd_data [7:0] $end
$var wire 4 1 fsm_output2 [3:0] $end
$var wire 8 2 fsm_output1 [7:0] $end
$var wire 1 3 db_rst_tick $end
$var wire 1 4 db_rst_level $end
$var wire 1 5 db_C_tick $end
$var wire 1 6 db_B_tick $end
$var wire 1 7 db_B_level $end
$var wire 1 8 db_A_tick $end
$var wire 1 9 db_A_level $end
$var wire 3 : color [2:0] $end
$var wire 8 ; an [7:0] $end
$scope module anti_C $end
$var wire 1 # boton $end
$var wire 1 < buttonneg $end
$var wire 1 $ clk $end
$var wire 1 = compare $end
$var reg 1 5 botondebounced $end
$var reg 28 > contador [27:0] $end
$var reg 1 ? previous $end
$var reg 1 @ pulse $end
$upscope $end
$scope module color_sensor $end
$var wire 1 $ clk $end
$var wire 3 A led_s0_s1 [2:0] $end
$var wire 1 ' sensor_out $end
$var wire 2 B s2_s3 [1:0] $end
$var wire 16 C red_norm [15:0] $end
$var wire 1 + luz $end
$var wire 16 D green_norm [15:0] $end
$var wire 3 E color [2:0] $end
$var wire 16 F blue_norm [15:0] $end
$scope module identifier_inst $end
$var wire 16 G red_norm [15:0] $end
$var wire 16 H green_norm [15:0] $end
$var wire 16 I blue_norm [15:0] $end
$var parameter 16 J BLUE_THRESHOLD $end
$var parameter 16 K GREEN_THRESHOLD $end
$var parameter 16 L RED_THRESHOLD $end
$var reg 3 M color [2:0] $end
$upscope $end
$scope module sensor_inst $end
$var wire 1 $ clk $end
$var wire 1 N rst $end
$var wire 1 ' sensor_out $end
$var parameter 29 O LUZ_THRESHOLD $end
$var parameter 2 P S_BLUE $end
$var parameter 2 Q S_CLEAR $end
$var parameter 2 R S_GREEN $end
$var parameter 3 S S_NORMALIZE $end
$var parameter 2 T S_RED $end
$var parameter 32 U TIME_LIMIT $end
$var reg 21 V blue_count [20:0] $end
$var reg 16 W blue_norm [15:0] $end
$var reg 17 X blue_value [16:0] $end
$var reg 21 Y clear_count [20:0] $end
$var reg 17 Z clear_value [16:0] $end
$var reg 21 [ green_count [20:0] $end
$var reg 16 \ green_norm [15:0] $end
$var reg 17 ] green_value [16:0] $end
$var reg 1 + luz $end
$var reg 21 ^ red_count [20:0] $end
$var reg 16 _ red_norm [15:0] $end
$var reg 17 ` red_value [16:0] $end
$var reg 2 a s2_s3 [1:0] $end
$var reg 1 b sensor_out_prev $end
$var reg 3 c state [2:0] $end
$var reg 32 d time_counter [31:0] $end
$upscope $end
$upscope $end
$scope module db_A $end
$var wire 1 $ clk $end
$var wire 1 e mode $end
$var wire 1 f reset $end
$var wire 1 ! sw $end
$var wire 4 g count_normal [3:0] $end
$var wire 4 h count_next_normal [3:0] $end
$var parameter 32 i N_LONG $end
$var parameter 32 j N_NORMAL $end
$var parameter 2 k one $end
$var parameter 2 l wait0 $end
$var parameter 2 m wait1 $end
$var parameter 2 n zero $end
$var reg 1 9 db_level $end
$var reg 1 8 db_tick $end
$var reg 23 o q_next_long [22:0] $end
$var reg 4 p q_next_normal [3:0] $end
$var reg 23 q q_reg_long [22:0] $end
$var reg 4 r q_reg_normal [3:0] $end
$var reg 2 s state_next [1:0] $end
$var reg 2 t state_reg [1:0] $end
$upscope $end
$scope module db_B $end
$var wire 1 $ clk $end
$var wire 1 u mode $end
$var wire 1 v reset $end
$var wire 1 " sw $end
$var wire 4 w count_normal [3:0] $end
$var wire 4 x count_next_normal [3:0] $end
$var parameter 32 y N_LONG $end
$var parameter 32 z N_NORMAL $end
$var parameter 2 { one $end
$var parameter 2 | wait0 $end
$var parameter 2 } wait1 $end
$var parameter 2 ~ zero $end
$var reg 1 7 db_level $end
$var reg 1 6 db_tick $end
$var reg 23 !" q_next_long [22:0] $end
$var reg 4 "" q_next_normal [3:0] $end
$var reg 23 #" q_reg_long [22:0] $end
$var reg 4 $" q_reg_normal [3:0] $end
$var reg 2 %" state_next [1:0] $end
$var reg 2 &" state_reg [1:0] $end
$upscope $end
$scope module db_rst $end
$var wire 1 $ clk $end
$var wire 1 '" mode $end
$var wire 1 (" reset $end
$var wire 1 & sw $end
$var wire 4 )" count_normal [3:0] $end
$var wire 4 *" count_next_normal [3:0] $end
$var parameter 32 +" N_LONG $end
$var parameter 32 ," N_NORMAL $end
$var parameter 2 -" one $end
$var parameter 2 ." wait0 $end
$var parameter 2 /" wait1 $end
$var parameter 2 0" zero $end
$var reg 1 4 db_level $end
$var reg 1 3 db_tick $end
$var reg 23 1" q_next_long [22:0] $end
$var reg 4 2" q_next_normal [3:0] $end
$var reg 23 3" q_reg_long [22:0] $end
$var reg 4 4" q_reg_normal [3:0] $end
$var reg 2 5" state_next [1:0] $end
$var reg 2 6" state_reg [1:0] $end
$upscope $end
$scope module display $end
$var wire 1 $ clk $end
$var wire 1 , led $end
$var wire 8 7" numB [7:0] $end
$var wire 1 8" rst $end
$var wire 7 9" sseg [0:6] $end
$var wire 8 :" numA [7:0] $end
$var wire 1 ;" enable $end
$var reg 8 <" an [7:0] $end
$var reg 4 =" bcd [3:0] $end
$var reg 32 >" cfreq [31:0] $end
$var reg 4 ?" count [3:0] $end
$scope module bcdtosseg $end
$var wire 4 @" BCD [3:0] $end
$var reg 7 A" SSeg [6:0] $end
$upscope $end
$upscope $end
$scope module fsm $end
$var wire 1 8 A $end
$var wire 1 6 B $end
$var wire 1 5 C $end
$var wire 1 $ clk $end
$var wire 3 B" color [2:0] $end
$var wire 1 + luz $end
$var wire 1 C" reset $end
$var wire 1 ( test $end
$var wire 2 D" time_control [1:0] $end
$var wire 6 E" vida_prom [5:0] $end
$var parameter 32 F" BASE_INTERVAL $end
$var parameter 32 G" INIT $end
$var parameter 32 H" S0 $end
$var parameter 32 I" S1 $end
$var parameter 32 J" S2 $end
$var parameter 32 K" S3 $end
$var parameter 32 L" S4 $end
$var parameter 32 M" S5 $end
$var parameter 32 N" S6 $end
$var reg 2 O" comida_color [1:0] $end
$var reg 3 P" current_state [2:0] $end
$var reg 34 Q" decrement_interval [33:0] $end
$var reg 1 R" decremento $end
$var reg 2 S" dzzzd [1:0] $end
$var reg 3 T" next_state [2:0] $end
$var reg 8 U" output1 [7:0] $end
$var reg 4 V" output2 [3:0] $end
$var reg 34 W" timer [33:0] $end
$var reg 3 X" var_S0 [2:0] $end
$var reg 3 Y" var_S1 [2:0] $end
$var reg 3 Z" var_S2 [2:0] $end
$var reg 3 [" var_S3 [2:0] $end
$var reg 3 \" var_S4 [2:0] $end
$upscope $end
$scope module u_lcd_controller $end
$var wire 1 $ clk $end
$var wire 1 / enable $end
$var wire 3 ]" memory_select [2:0] $end
$var wire 3 ^" message_select [2:0] $end
$var wire 1 _" ready_i $end
$var wire 1 `" reset $end
$var wire 3 a" variable_a [2:0] $end
$var wire 3 b" variable_b [2:0] $end
$var parameter 8 c" CLEAR_DISPLAY $end
$var parameter 4 d" CMD1 $end
$var parameter 4 e" CMD2 $end
$var parameter 4 f" CMD3 $end
$var parameter 4 g" CMD4 $end
$var parameter 32 h" COUNT_MAX $end
$var parameter 4 i" DATA_1L $end
$var parameter 4 j" DATA_2L $end
$var parameter 4 k" DATA_3L $end
$var parameter 4 l" DATA_4L $end
$var parameter 8 m" DISPON_CURSOROFF $end
$var parameter 4 n" IDLE $end
$var parameter 8 o" LINES2_MATRIX5x8_MODE8bit $end
$var parameter 8 p" SHIFT_CURSOR_RIGHT $end
$var parameter 8 q" START_2LINE $end
$var parameter 8 r" START_3LINE $end
$var parameter 8 s" START_4LINE $end
$var parameter 32 t" num_commands $end
$var parameter 32 u" num_data_all $end
$var parameter 32 v" num_data_perline $end
$var reg 1 w" clk_16ms $end
$var reg 3 x" command_counter [2:0] $end
$var reg 1 y" configuracion_ready $end
$var reg 4 z" counter [3:0] $end
$var reg 8 {" data [7:0] $end
$var reg 6 |" data_counter [5:0] $end
$var reg 4 }" fsm_state [3:0] $end
$var reg 13 ~" memory_offset [12:0] $end
$var reg 4 !# next [3:0] $end
$var reg 1 . rs $end
$var reg 1 - rw $end
$var reg 10 "# start_address [9:0] $end
$upscope $end
$upscope $end
$upscope $end
$enddefinitions $end
$comment Show the parameter values. $end
$dumpall
b10100 v"
b1010000000000 u"
b100 t"
b11010100 s"
b10010100 r"
b11000000 q"
b110 p"
b111000 o"
b0 n"
b1100 m"
b1000 l"
b110 k"
b100 j"
b10 i"
b1010 h"
b111 g"
b101 f"
b11 e"
b1 d"
b1 c"
b111 N"
b110 M"
b101 L"
b100 K"
b11 J"
b10 I"
b1 H"
b0 G"
b11111 F"
b0 0"
b1 /"
b11 ."
b10 -"
b100 ,"
b10111 +"
b0 ~
b1 }
b11 |
b10 {
b100 z
b10111 y
b0 n
b1 m
b11 l
b10 k
b100 j
b10111 i
b10011000100101101000000 U
b0 T
b100 S
b1 R
b11 Q
b10 P
b1100100 O
b110010 L
b11110 K
b11110 J
$end
#0
$dumpvars
bx "#
b1 !#
bx ~"
b0 }"
b0 |"
b0 {"
b0 z"
0y"
b0 x"
0w"
b0 b"
b0 a"
1`"
1_"
b0 ^"
b0 ]"
bx \"
bx ["
bx Z"
bx Y"
bx X"
bx W"
b0 V"
b0 U"
b0 T"
b0 S"
xR"
b11111 Q"
b0 P"
b0 O"
bx E"
b0 D"
1C"
bx B"
b1 A"
b0 @"
b0 ?"
b0 >"
b0 ="
bx <"
0;"
b0 :"
b1 9"
18"
b0 7"
bx 6"
b0 5"
bx 4"
bx 3"
bx 2"
bx 1"
bx *"
bx )"
1("
1'"
bx &"
b0 %"
bx $"
bx #"
bx ""
b0xxxx !"
bx x
bx w
1v
0u
bx t
b0 s
bx r
bx q
bx p
b0xxxx o
bx h
bx g
1f
0e
b0 d
b0 c
xb
bx a
bx `
bx _
b0 ^
bx ]
bx \
b0 [
bx Z
b0 Y
bx X
bx W
b0 V
1N
bx M
bx I
bx H
bx G
bx F
bx E
bx D
bx C
bx B
b11 A
0@
1?
b1011111010111100001000000 >
0=
1<
bx ;
bx :
x9
08
x7
06
05
x4
03
b0 2
b0 1
b0 0
0/
0.
0-
0,
x+
bx *
b1 )
1(
0'
1&
b11 %
0$
0#
0"
0!
$end
#1000
b1111 *"
09
07
b1 5"
04
b11111111111111111111111 1"
b0 t
b0 &"
b1011111010111100000111111 >
b0xxxx 3"
b0 6"
b0 W"
b1 >"
0b
b1 d
1+
b1 z"
1R"
1$
#2000
b11001 E"
b101 \"
b101 ["
b101 Z"
b101 Y"
b101 X"
0$
#3000
b1110 *"
b1111 )"
b1110 1"
bx 2"
b10 z"
b10 d
b10 >"
b1111 3"
b1 6"
b1011111010111100000111110 >
0R"
b1 W"
1$
#4000
0$
#5000
b1101 *"
b1101 1"
bx 2"
b1110 )"
b1011111010111100000111101 >
b1110 3"
b11 >"
b11 d
b11 z"
b10 W"
1$
#6000
0$
#7000
b1100 *"
b1100 1"
bx 2"
b1101 )"
b100 z"
b100 d
b100 >"
b1101 3"
b1011111010111100000111100 >
b11 W"
1$
#8000
0$
#9000
b1011 *"
b1011 1"
bx 2"
b1100 )"
b1011111010111100000111011 >
b1100 3"
b101 >"
b101 d
b101 z"
b100 W"
1$
#10000
0$
#11000
b1010 *"
b1010 1"
bx 2"
b1011 )"
b110 z"
b110 d
b110 >"
b1011 3"
b1011111010111100000111010 >
b101 W"
1$
#12000
0$
#13000
b1001 *"
b1001 1"
bx 2"
b1010 )"
b1011111010111100000111001 >
b1010 3"
b111 >"
b111 d
b111 z"
b110 W"
1$
#14000
0$
#15000
b1000 *"
b1000 1"
bx 2"
b1001 )"
b1000 z"
b1000 d
b1000 >"
b1001 3"
b1011111010111100000111000 >
b111 W"
1$
#16000
0$
#17000
b111 *"
b111 1"
bx 2"
b1000 )"
b1011111010111100000110111 >
b1000 3"
b1001 >"
b1001 d
b1001 z"
b1000 W"
1$
#18000
0$
#19000
b1 }"
b0 ~"
b0 "#
b111000 0
b111000 {"
b1 x"
b110 *"
b110 1"
bx 2"
b111 )"
b0 z"
1/
1w"
b1010 d
b1010 >"
b111 3"
b1011111010111100000110110 >
b1001 W"
1$
#20000
0$
#21000
b101 *"
b101 1"
bx 2"
b110 )"
b1011111010111100000110101 >
b110 3"
b1011 >"
b1011 d
b1 z"
b1010 W"
1$
#22000
0$
#23000
b100 *"
b100 1"
bx 2"
b101 )"
b10 z"
b1100 d
b1100 >"
b101 3"
b1011111010111100000110100 >
b1011 W"
1$
#24000
0$
#25000
b11 *"
b11 1"
bx 2"
b100 )"
b1011111010111100000110011 >
b100 3"
b1101 >"
b1101 d
b11 z"
b1100 W"
1$
#26000
0$
#27000
b10 *"
b10 1"
bx 2"
b11 )"
b100 z"
b1110 d
b1110 >"
b11 3"
b1011111010111100000110010 >
b1101 W"
1$
#28000
0$
#29000
b1 *"
b1 1"
bx 2"
b10 )"
b1011111010111100000110001 >
b10 3"
b1111 >"
b1111 d
b101 z"
b1110 W"
1$
#30000
0$
#31000
b0 *"
b0 1"
bx 2"
b1 )"
b110 z"
b10000 d
b10000 >"
b1 3"
b1011111010111100000110000 >
b1111 W"
1$
#32000
0$
#33000
0C"
b1111 *"
13
b10 5"
b11111111111111111111111 1"
bx 2"
b0 )"
b1011111010111100000101111 >
b0 3"
b10001 >"
b10001 d
b111 z"
b10000 W"
1$
#34000
0$
#35000
1C"
b1111 )"
14
03
b1111 1"
b1111 2"
b1000 z"
b10010 d
b10010 >"
b1111 3"
b10 6"
b1011111010111100000101110 >
b10001 W"
1$
#36000
0$
#37000
b1011111010111100000101101 >
b10011 >"
b10011 d
b1001 z"
b10010 W"
1$
#38000
0$
#39000
b0 z"
0/
0w"
b10100 d
b10100 >"
b1011111010111100000101100 >
b10011 W"
1$
#40000
0$
#41000
b1011111010111100000101011 >
b10101 >"
b10101 d
b1 z"
b10100 W"
1$
#42000
0$
#43000
b10 z"
b10110 d
b10110 >"
b1011111010111100000101010 >
b10101 W"
1$
#44000
0$
#45000
b1011111010111100000101001 >
b10111 >"
b10111 d
b11 z"
b10110 W"
1$
#46000
0$
#47000
b100 z"
b11000 d
b11000 >"
b1011111010111100000101000 >
b10111 W"
1$
#48000
0$
#49000
b1011111010111100000100111 >
b11001 >"
b11001 d
b101 z"
b11000 W"
1$
#50000
0$
#51000
b110 z"
b11010 d
b11010 >"
b1011111010111100000100110 >
b11001 W"
1$
#52000
0$
#53000
b1011111010111100000100101 >
b11011 >"
b11011 d
b111 z"
b11010 W"
1$
#54000
0$
#55000
b1000 z"
b11100 d
b11100 >"
b1011111010111100000100100 >
b11011 W"
1$
#56000
0$
#57000
b1011111010111100000100011 >
b11101 >"
b11101 d
b1001 z"
b11100 W"
1$
#58000
0$
#59000
b110 0
b110 {"
b10 x"
b0 z"
1/
1w"
b11110 d
b11110 >"
b1011111010111100000100010 >
b11101 W"
1$
#60000
0$
#61000
b1011111010111100000100001 >
b11111 >"
b11111 d
b1 z"
b11110 W"
1$
#62000
0$
#63000
b10 z"
b100000 d
b100000 >"
b1011111010111100000100000 >
b11111 W"
1$
#64000
0$
#65000
b1011111010111100000011111 >
b0 W"
b100001 >"
b100001 d
b11 z"
1R"
1$
#66000
0$
#67000
b100 z"
b100010 d
b100010 >"
b1011111010111100000011110 >
0R"
b1 W"
1$
#68000
0$
#69000
b1011111010111100000011101 >
b100011 >"
b100011 d
b101 z"
b10 W"
1$
#70000
0$
#71000
b110 z"
b100100 d
b100100 >"
b1011111010111100000011100 >
b11 W"
1$
#72000
0$
#73000
b1011111010111100000011011 >
b100101 >"
b100101 d
b111 z"
b100 W"
1$
#74000
0$
#75000
b1000 z"
b100110 d
b100110 >"
b1011111010111100000011010 >
b101 W"
1$
#76000
0$
#77000
b1011111010111100000011001 >
b100111 >"
b100111 d
b1001 z"
b110 W"
1$
#78000
0$
#79000
b0 z"
0/
0w"
b101000 d
b101000 >"
b1011111010111100000011000 >
b111 W"
1$
#80000
0$
#81000
b1011111010111100000010111 >
b101001 >"
b101001 d
b1 z"
b1000 W"
1$
#82000
0$
#83000
b10 z"
b101010 d
b101010 >"
b1011111010111100000010110 >
b1001 W"
1$
#84000
0$
#85000
b1011111010111100000010101 >
b101011 >"
b101011 d
b11 z"
b1010 W"
1$
#86000
0$
#87000
b100 z"
b101100 d
b101100 >"
b1011111010111100000010100 >
b1011 W"
1$
#88000
0$
#89000
b1011111010111100000010011 >
b101101 >"
b101101 d
b101 z"
b1100 W"
1$
#90000
0$
#91000
b110 z"
b101110 d
b101110 >"
b1011111010111100000010010 >
b1101 W"
1$
#92000
0$
#93000
b1011111010111100000010001 >
b101111 >"
b101111 d
b111 z"
b1110 W"
1$
#94000
0$
#95000
b1000 z"
b110000 d
b110000 >"
b1011111010111100000010000 >
b1111 W"
1$
#96000
0$
#97000
b1011111010111100000001111 >
b110001 >"
b110001 d
b1001 z"
b10000 W"
1$
#98000
0$
#99000
b1100 0
b1100 {"
b11 x"
b0 z"
1/
1w"
b110010 d
b110010 >"
b1011111010111100000001110 >
b10001 W"
1$
#100000
b11111111111111111111111 1"
b11 5"
0$
0&
#101000
b1110 *"
bx 2"
b1110 1"
b1011111010111100000001101 >
b11 6"
b110011 >"
b110011 d
b1 z"
b10010 W"
1$
#102000
0$
#103000
b1101 *"
b1101 1"
bx 2"
b1110 )"
b10 z"
b110100 d
b110100 >"
b1110 3"
b1011111010111100000001100 >
b10011 W"
1$
#104000
0$
#105000
b1100 *"
bx o
b1100 1"
bx 2"
b1101 )"
b1 t
b1011111010111100000001011 >
b1101 3"
b110101 >"
b110101 d
b11 z"
bx h
b10100 W"
bx p
b1 s
1$
1!
#106000
0$
#107000
b1011 *"
b1011 1"
bx 2"
b1100 )"
b100 z"
b110110 d
b110110 >"
b1100 3"
b1011111010111100000001010 >
b10101 W"
1$
#108000
0$
#109000
b1010 *"
b1010 1"
bx 2"
b1011 )"
b1011111010111100000001001 >
b1011 3"
b110111 >"
b110111 d
b101 z"
b10110 W"
1$
#110000
b0 s
b0xxxx o
0$
0!
#111000
b1001 *"
b1001 1"
bx 2"
b1010 )"
b110 z"
b111000 d
b111000 >"
b1010 3"
b1011111010111100000001000 >
b0 t
b10111 W"
1$
#112000
0$
#113000
b1000 *"
b1000 1"
bx 2"
b1001 )"
b1011111010111100000000111 >
b1001 3"
b111001 >"
b111001 d
b111 z"
b11000 W"
1$
#114000
0$
#115000
b111 *"
b111 1"
bx 2"
b1000 )"
b1000 z"
b111010 d
b111010 >"
b1000 3"
b1011111010111100000000110 >
b11001 W"
1$
#116000
0$
#117000
b110 *"
b110 1"
bx 2"
b111 )"
b1011111010111100000000101 >
b111 3"
b111011 >"
b111011 d
b1001 z"
b11010 W"
1$
#118000
0$
#119000
b101 *"
b101 1"
bx 2"
b110 )"
b0 z"
0/
0w"
b111100 d
b111100 >"
b110 3"
b1011111010111100000000100 >
b11011 W"
1$
#120000
0$
#121000
b100 *"
b100 1"
bx 2"
b101 )"
b1011111010111100000000011 >
b101 3"
b111101 >"
b111101 d
b1 z"
b11100 W"
1$
#122000
0$
#123000
b11 *"
b11 1"
bx 2"
b100 )"
b10 z"
b111110 d
b111110 >"
b100 3"
b1011111010111100000000010 >
b11101 W"
1$
#124000
0$
#125000
b10 *"
b10 1"
bx 2"
b11 )"
b1011111010111100000000001 >
b11 3"
b111111 >"
b111111 d
b11 z"
b11110 W"
1$
#126000
0$
#127000
b1 *"
b1 1"
bx 2"
b10 )"
b100 z"
b1000000 d
b1000000 >"
b10 3"
b1011111010111100000000000 >
b11111 W"
1$
#128000
0$
#129000
b0 *"
b0 1"
bx 2"
b1 )"
b1011111010111011111111111 >
b1 3"
b0 W"
b1000001 >"
b1000001 d
b101 z"
1R"
1$
#130000
0$
#131000
b1111 *"
b0 5"
b11111111111111111111111 1"
bx 2"
b0 )"
b110 z"
b1000010 d
b1000010 >"
b0 3"
b1011111010111011111111110 >
0R"
b1 W"
1$
#132000
0$
#133000
b1111 )"
04
b1111 1"
b1111 2"
b1011111010111011111111101 >
b1111 3"
b0 6"
b1000011 >"
b1000011 d
b111 z"
b10 W"
1$
#134000
0$
#135000
bx o
b1000 z"
b1000100 d
b1000100 >"
b1011111010111011111111100 >
b1 t
bx h
b11 W"
bx p
b1 s
1$
1!
#136000
0$
#137000
b1011111010111011111111011 >
b1000101 >"
b1000101 d
b1001 z"
b100 W"
1$
#138000
0$
#139000
b10 !#
1y"
b1 0
b1 {"
b100 x"
b0 z"
1/
1w"
b1000110 d
b1000110 >"
b1011111010111011111111010 >
b101 W"
1$
#140000
b0 s
b0xxxx o
0$
0!
#141000
b0 t
b1011111010111011111111001 >
b1000111 >"
b1000111 d
b1 z"
b110 W"
1$
#142000
0$
#143000
b10 z"
b1001000 d
b1001000 >"
b1011111010111011111111000 >
b111 W"
1$
#144000
0$
#145000
b1011111010111011111110111 >
b1001001 >"
b1001001 d
b11 z"
b1000 W"
1$
#146000
0$
#147000
b100 z"
b1001010 d
b1001010 >"
b1011111010111011111110110 >
b1001 W"
1$
#148000
0$
#149000
b1011111010111011111110101 >
b1001011 >"
b1001011 d
b101 z"
b1010 W"
1$
#150000
0$
#151000
b110 z"
b1001100 d
b1001100 >"
b1011111010111011111110100 >
b1011 W"
1$
#152000
0$
#153000
b1011111010111011111110011 >
b1001101 >"
b1001101 d
b111 z"
b1100 W"
1$
#154000
0$
#155000
b1000 z"
b1001110 d
b1001110 >"
b1011111010111011111110010 >
b1101 W"
1$
#156000
0$
#157000
b1011111010111011111110001 >
b1001111 >"
b1001111 d
b1001 z"
b1110 W"
1$
#158000
0$
#159000
b0 z"
0/
0w"
b1010000 d
b1010000 >"
b1011111010111011111110000 >
b1111 W"
1$
#160000
0$
#161000
b1011111010111011111101111 >
b1010001 >"
b1010001 d
b1 z"
b10000 W"
1$
#162000
0$
#163000
b10 z"
b1010010 d
b1010010 >"
b1011111010111011111101110 >
b10001 W"
1$
#164000
0$
#165000
b1011111010111011111101101 >
b1010011 >"
b1010011 d
b11 z"
b10010 W"
1$
#166000
0$
#167000
b100 z"
b1010100 d
b1010100 >"
b1011111010111011111101100 >
b10011 W"
1$
#168000
0$
#169000
b1011111010111011111101011 >
b1010101 >"
b1010101 d
b101 z"
b10100 W"
1$
#170000
0$
#171000
b110 z"
b1010110 d
b1010110 >"
b1011111010111011111101010 >
b10101 W"
1$
#172000
0$
#173000
b1011111010111011111101001 >
b1010111 >"
b1010111 d
b111 z"
b10110 W"
1$
#174000
0$
#175000
b1000 z"
b1011000 d
b1011000 >"
b1011111010111011111101000 >
b10111 W"
1$
#176000
0$
#177000
b1011111010111011111100111 >
b1011001 >"
b1011001 d
b1001 z"
b11000 W"
1$
#178000
0$
#179000
b10 }"
b1101000 0
b1101000 {"
1.
b1 |"
b0 z"
1/
1w"
b1011010 d
b1011010 >"
b1011111010111011111100110 >
b11001 W"
1$
#180000
0$
#181000
b1011111010111011111100101 >
b1011011 >"
b1011011 d
b1 z"
b11010 W"
1$
#182000
0$
#183000
b10 z"
b1011100 d
b1011100 >"
b1011111010111011111100100 >
b11011 W"
1$
#184000
0$
#185000
b1011111010111011111100011 >
b1011101 >"
b1011101 d
b11 z"
b11100 W"
1$
#186000
0$
#187000
b100 z"
b1011110 d
b1011110 >"
b1011111010111011111100010 >
b11101 W"
1$
#188000
0$
#189000
b1011111010111011111100001 >
b1011111 >"
b1011111 d
b101 z"
b11110 W"
1$
#190000
b1111 h
b1111 p
b1 s
0$
1!
#191000
b1110 h
b1111 g
b1110 p
bx o
b110 z"
b1100000 d
b1100000 >"
b1011111010111011111100000 >
b1111 r
b1 t
b11111 W"
1$
#192000
0$
#193000
b1101 h
b1101 p
bx o
b1110 g
b1110 r
b1011111010111011111011111 >
b0 W"
b1100001 >"
b1100001 d
b111 z"
1R"
1$
#194000
0$
#195000
b1100 h
b1100 p
bx o
b1101 g
b1000 z"
b1100010 d
b1100010 >"
b1011111010111011111011110 >
b1101 r
0R"
b1 W"
1$
#196000
0$
#197000
b1011 h
b1011 p
bx o
b1100 g
b1100 r
b1011111010111011111011101 >
b1100011 >"
b1100011 d
b1001 z"
b10 W"
1$
#198000
0$
#199000
b1010 h
b1010 p
bx o
b1011 g
b0 z"
0/
0w"
b1100100 d
b1100100 >"
b1011111010111011111011100 >
b1011 r
b11 W"
1$
#200000
0$
#201000
b1001 h
b1001 p
bx o
b1010 g
b1010 r
b1011111010111011111011011 >
b1100101 >"
b1100101 d
b1 z"
b100 W"
1$
#202000
0$
#203000
b1000 h
b1000 p
bx o
b1001 g
b10 z"
b1100110 d
b1100110 >"
b1011111010111011111011010 >
b1001 r
b101 W"
1$
#204000
0$
#205000
b111 h
b111 p
bx o
b1000 g
b1000 r
b1011111010111011111011001 >
b1100111 >"
b1100111 d
b11 z"
b110 W"
1$
#206000
0$
#207000
b110 h
b110 p
bx o
b111 g
b100 z"
b1101000 d
b1101000 >"
b1011111010111011111011000 >
b111 r
b111 W"
1$
#208000
0$
#209000
b101 h
b101 p
bx o
b110 g
b110 r
b1011111010111011111010111 >
b1101001 >"
b1101001 d
b101 z"
b1000 W"
1$
#210000
0$
#211000
b100 h
b100 p
bx o
b101 g
b110 z"
b1101010 d
b1101010 >"
b1011111010111011111010110 >
b101 r
b1001 W"
1$
#212000
0$
#213000
b11 h
b11 p
bx o
b100 g
b100 r
b1011111010111011111010101 >
b1101011 >"
b1101011 d
b111 z"
b1010 W"
1$
#214000
0$
#215000
b10 h
b10 p
bx o
b11 g
b1000 z"
b1101100 d
b1101100 >"
b1011111010111011111010100 >
b11 r
b1011 W"
1$
#216000
0$
#217000
b1 h
b1 p
bx o
b10 g
b10 r
b1011111010111011111010011 >
b1101101 >"
b1101101 d
b1001 z"
b1100 W"
1$
#218000
0$
#219000
b1101111 0
b1101111 {"
b10 |"
b0 h
b0 p
bx o
b1 g
b0 z"
1/
1w"
b1101110 d
b1101110 >"
b1011111010111011111010010 >
b1 r
b1101 W"
1$
#220000
0$
#221000
b1 b"
b1 ]"
b101 a"
b101 ^"
b1 7"
b1 1
b1 V"
b101 2
b101 :"
b101 U"
b1 T"
b1111 h
18
b10 s
b1111 p
bx o
b0 g
b0 r
b1011111010111011111010001 >
b1101111 >"
b1101111 d
b1 z"
b1110 W"
1$
#222000
0$
#223000
b1111 g
19
08
b1111 o
b10 z"
b1110000 d
b1110000 >"
b1 P"
b1011111010111011111010000 >
b1111 r
b10 t
b1111 W"
1$
#224000
0$
#225000
b1011111010111011111001111 >
b1110001 >"
b1110001 d
b11 z"
b10000 W"
1$
#226000
0$
#227000
b100 z"
b1110010 d
b1110010 >"
b1011111010111011111001110 >
b10001 W"
1$
#228000
0$
#229000
b1011111010111011111001101 >
b1110011 >"
b1110011 d
b101 z"
b10010 W"
1$
#230000
0$
#231000
b110 z"
b1110100 d
b1110100 >"
b1011111010111011111001100 >
b10011 W"
1$
#232000
0$
#233000
b1011111010111011111001011 >
b1110101 >"
b1110101 d
b111 z"
b10100 W"
1$
#234000
0$
#235000
b1000 z"
b1110110 d
b1110110 >"
b1011111010111011111001010 >
b10101 W"
1$
#236000
0$
#237000
b1011111010111011111001001 >
b1110111 >"
b1110111 d
b1001 z"
b10110 W"
1$
#238000
0$
#239000
b0 z"
0/
0w"
b1111000 d
b1111000 >"
b1011111010111011111001000 >
b10111 W"
1$
#240000
b11 s
0$
0!
#241000
b1110 h
bx o
b1110 p
b11 t
b1011111010111011111000111 >
b1111001 >"
b1111001 d
b1 z"
b11000 W"
1$
#242000
0$
#243000
b1101 h
b1101 p
bx o
b1110 g
b10 z"
b1111010 d
b1111010 >"
b1011111010111011111000110 >
b1110 r
b11001 W"
1$
#244000
0$
#245000
b1100 h
b1100 p
bx o
b1101 g
b1101 r
b1011111010111011111000101 >
b1111011 >"
b1111011 d
b11 z"
b11010 W"
1$
#246000
0$
#247000
b1011 h
b1011 p
bx o
b1100 g
b100 z"
b1111100 d
b1111100 >"
b1011111010111011111000100 >
b1100 r
b11011 W"
1$
#248000
0$
#249000
b1010 h
b1010 p
bx o
b1011 g
b1011 r
b1011111010111011111000011 >
b1111101 >"
b1111101 d
b101 z"
b11100 W"
1$
#250000
0$
#251000
b1001 h
b1001 p
bx o
b1010 g
b110 z"
b1111110 d
b1111110 >"
b1011111010111011111000010 >
b1010 r
b11101 W"
1$
#252000
0$
#253000
b1000 h
b1000 p
bx o
b1001 g
b1001 r
b1011111010111011111000001 >
b1111111 >"
b1111111 d
b111 z"
b11110 W"
1$
#254000
0$
#255000
b111 h
b111 p
bx o
b1000 g
b1000 z"
b10000000 d
b10000000 >"
b1011111010111011111000000 >
b1000 r
b11111 W"
1$
#256000
0$
#257000
b110 h
b110 p
bx o
b111 g
b111 r
b1011111010111011110111111 >
b0 W"
b10000001 >"
b10000001 d
b1001 z"
1R"
1$
#258000
0$
#259000
b1010000000 ~"
b110010000 "#
b1101100 0
b1101100 {"
b11 |"
b101 h
b101 p
bx o
b110 g
b0 z"
1/
1w"
b10000010 d
b10000010 >"
b1011111010111011110111110 >
b110 r
0R"
b1 W"
1$
#260000
0$
#261000
b100 h
b100 p
bx o
b101 g
b101 r
b1011111010111011110111101 >
b10000011 >"
b10000011 d
b1 z"
b10 W"
1$
#262000
0$
